Data Analytics INDE 6645-Term Project
…
The graph shows that highest number of transactions are in the form of Debit and the lowest number of transactions are in the form of cash.

total_sales <- v_data%>%
   group_by(Category.Name) 
total_sales

## # A tibble: 180,519 x 41
## # Groups:   Category.Name [50]
##    Type  Days.for.shippi~ Days.for.shipme~ Benefit.per.ord~ Sales.per.custo~
##    <chr>            <int>            <int>            <dbl>            <dbl>
##  1 DEBIT                3                4             91.2             315.
##  2 TRAN~                5                4           -249.              311.
##  3 CASH                 4                4           -248.              310.
##  4 DEBIT                3                4             22.9             305.
##  5 PAYM~                2                4            134.              298.
##  6 TRAN~                6                4             18.6             295.
##  7 DEBIT                2                1             95.2             288.
##  8 TRAN~                2                1             68.4             285.
##  9 CASH                 3                2            134.              279.
## 10 CASH                 2                1            132.              275.
## # ... with 180,509 more rows, and 36 more variables: Delivery.Status <chr>,
## #   Late_delivery_risk <int>, Category.Id <int>, Category.Name <chr>,
## #   Customer.City <chr>, Customer.Country <chr>, Customer.Fname <chr>,
## #   Customer.Id <int>, Customer.Lname <chr>, Customer.Segment <chr>,
## #   Customer.State <chr>, Customer.Zipcode <int>, Department.Id <int>,
## #   Department.Name <chr>, Latitude <dbl>, Longitude <dbl>, Market <chr>,
## #   Order.City <chr>, Order.Country <chr>, order.date..DateOrders. <chr>,
## #   Order.Id <int>, Order.Item.Cardprod.Id <int>, Order.Item.Discount <dbl>,
## #   Order.Item.Discount.Rate <dbl>, Order.Item.Id <int>,
## #   Order.Item.Profit.Ratio <dbl>, Order.Item.Quantity <int>, Sales <dbl>,
## #   Order.Region <chr>, Order.State <chr>, Order.Status <chr>,
## #   Product.Card.Id <int>, Product.Name <chr>, Product.Price <dbl>,
## #   shipping.date..DateOrders. <chr>, Shipping.Mode <chr>

total_sales <- total_sales%>%
 summarize(Sales.per.customer = sum(Sales.per.customer))
total_sales

## # A tibble: 50 x 2
##    Category.Name         Sales.per.customer
##    <chr>                              <dbl>
##  1 "Accessories"                    119713.
##  2 "As Seen on  TV!"                 18520.
##  3 "Baby "                           10957.
##  4 "Baseball & Softball"             84367.
##  5 "Basketball"                      24705.
##  6 "Books "                          11303.
##  7 "Boxing & MMA"                    76287.
##  8 "Cameras "                       240497.
##  9 "Camping & Hiking"              3700784.
## 10 "Cardio Equipment"              3320251.
## # ... with 40 more rows
…
## # A tibble: 5 x 2
##   Category.Name    Sales.per.customer
##   <chr>                         <dbl>
## 1 Fishing                    6226935.
## 2 Cleats                     3982857.
## 3 Camping & Hiking           3700784.
## 4 Cardio Equipment           3320251.
## 5 Women's Apparel            2828708.

total_sales <- v_data%>%
   group_by(Order.Region) 
total_sales

## # A tibble: 180,519 x 41
## # Groups:   Order.Region [23]
##    Type  Days.for.shippi~ Days.for.shipme~ Benefit.per.ord~ Sales.per.custo~
##    <chr>            <int>            <int>            <dbl>            <dbl>
##  1 DEBIT                3                4             91.2             315.
##  2 TRAN~                5                4           -249.              311.
##  3 CASH                 4                4           -248.              310.
##  4 DEBIT                3                4             22.9             305.
##  5 PAYM~                2                4            134.              298.
##  6 TRAN~                6                4             18.6             295.
##  7 DEBIT                2                1             95.2             288.
##  8 TRAN~                2                1             68.4             285.
##  9 CASH                 3                2            134.              279.
## 10 CASH                 2                1            132.              275.
## # ... with 180,509 more rows, and 36 more variables: Delivery.Status <chr>,
## #   Late_delivery_risk <int>, Category.Id <int>, Category.Name <chr>,
## #   Customer.City <chr>, Customer.Country <chr>, Customer.Fname <chr>,
## #   Customer.Id <int>, Customer.Lname <chr>, Customer.Segment <chr>,
## #   Customer.State <chr>, Customer.Zipcode <int>, Department.Id <int>,
## #   Department.Name <chr>, Latitude <dbl>, Longitude <dbl>, Market <chr>,
## #   Order.City <chr>, Order.Country <chr>, order.date..DateOrders. <chr>,
## #   Order.Id <int>, Order.Item.Cardprod.Id <int>, Order.Item.Discount <dbl>,
## #   Order.Item.Discount.Rate <dbl>, Order.Item.Id <int>,
## #   Order.Item.Profit.Ratio <dbl>, Order.Item.Quantity <int>, Sales <dbl>,
## #   Order.Region <chr>, Order.State <chr>, Order.Status <chr>,
## #   Product.Card.Id <int>, Product.Name <chr>, Product.Price <dbl>,
## #   shipping.date..DateOrders. <chr>, Shipping.Mode <chr>

total_sales <- total_sales%>%
 summarize(Sales.per.customer = sum(Sales.per.customer))%>%
 arrange(desc(Sales.per.customer))
total_sales

## # A tibble: 23 x 2
##    Order.Region      Sales.per.customer
##    <chr>                          <dbl>
##  1 "Western Europe"            5296003.
##  2 "Central America"           5093850.
##  3 "South America"             2660244.
##  4 "Northern Europe"           1939362.
##  5 "Southern Europe"           1837526.
##  6 "Oceania"                   1809997.
##  7 "Southeast Asia"            1738553.
##  8 "Caribbean"                 1481669.
##  9 "West of USA "              1412254.
## 10 "South Asia"                1397365.
## # ... with 13 more rows
…
It could be seen from the graph that European market has the greatest number of sales whereas Africa has the least. In these markets western Europe regions and central America recorded highest sales.

total_sales <- v_data%>%
   group_by(Category.Name) 
total_sales

## # A tibble: 180,519 x 41
## # Groups:   Category.Name [50]
##    Type  Days.for.shippi~ Days.for.shipme~ Benefit.per.ord~ Sales.per.custo~
##    <chr>            <int>            <int>            <dbl>            <dbl>
##  1 DEBIT                3                4             91.2             315.
##  2 TRAN~                5                4           -249.              311.
##  3 CASH                 4                4           -248.              310.
##  4 DEBIT                3                4             22.9             305.
##  5 PAYM~                2                4            134.              298.
##  6 TRAN~                6                4             18.6             295.
##  7 DEBIT                2                1             95.2             288.
##  8 TRAN~                2                1             68.4             285.
##  9 CASH                 3                2            134.              279.
## 10 CASH                 2                1            132.              275.
## # ... with 180,509 more rows, and 36 more variables: Delivery.Status <chr>,
## #   Late_delivery_risk <int>, Category.Id <int>, Category.Name <chr>,
## #   Customer.City <chr>, Customer.Country <chr>, Customer.Fname <chr>,
## #   Customer.Id <int>, Customer.Lname <chr>, Customer.Segment <chr>,
## #   Customer.State <chr>, Customer.Zipcode <int>, Department.Id <int>,
## #   Department.Name <chr>, Latitude <dbl>, Longitude <dbl>, Market <chr>,
## #   Order.City <chr>, Order.Country <chr>, order.date..DateOrders. <chr>,
## #   Order.Id <int>, Order.Item.Cardprod.Id <int>, Order.Item.Discount <dbl>,
## #   Order.Item.Discount.Rate <dbl>, Order.Item.Id <int>,
## #   Order.Item.Profit.Ratio <dbl>, Order.Item.Quantity <int>, Sales <dbl>,
## #   Order.Region <chr>, Order.State <chr>, Order.Status <chr>,
## #   Product.Card.Id <int>, Product.Name <chr>, Product.Price <dbl>,
## #   shipping.date..DateOrders. <chr>, Shipping.Mode <chr>

total_sales <- total_sales%>%
 summarize(Product.Price = mean(Product.Price))%>%
 arrange(desc(Product.Price))
total_sales

## # A tibble: 50 x 2
##    Category.Name         Product.Price
##    <chr>                         <dbl>
##  1 "Computers"                   1500 
##  2 "Garden"                       533.
##  3 "Strength Training"            495.
##  4 "Crafts"                       461.
##  5 "Cameras "                     452.
##  6 "Basketball"                   404.
##  7 "Fishing"                      400.
##  8 "Children's Clothing"          357.
##  9 "Sporting Goods"               328.
## 10 "Camping & Hiking"             300.
## # ... with 40 more rows
…
As we can see from Sales and categories graph that the fishing category had the greatest number of sales followed by the Cleats. However, it is surprising to see referring to Average price for each category graph that top 7 products with highest price on average are the most sold products on average with computers having almost $1350 sales despite price being $1500.

market <- v_data%>%
  group_by(Market)
market

## # A tibble: 180,519 x 41
## # Groups:   Market [5]
##    Type  Days.for.shippi~ Days.for.shipme~ Benefit.per.ord~ Sales.per.custo~
##    <chr>            <int>            <int>            <dbl>            <dbl>
##  1 DEBIT                3                4             91.2             315.
##  2 TRAN~                5                4           -249.              311.
##  3 CASH                 4                4           -248.              310.
##  4 DEBIT                3                4             22.9             305.
##  5 PAYM~                2                4            134.              298.
##  6 TRAN~                6                4             18.6             295.
##  7 DEBIT                2                1             95.2             288.
##  8 TRAN~                2                1             68.4             285.
##  9 CASH                 3                2            134.              279.
## 10 CASH                 2                1            132.              275.
## # ... with 180,509 more rows, and 36 more variables: Delivery.Status <chr>,
## #   Late_delivery_risk <int>, Category.Id <int>, Category.Name <chr>,
## #   Customer.City <chr>, Customer.Country <chr>, Customer.Fname <chr>,
## #   Customer.Id <int>, Customer.Lname <chr>, Customer.Segment <chr>,
## #   Customer.State <chr>, Customer.Zipcode <int>, Department.Id <int>,
## #   Department.Name <chr>, Latitude <dbl>, Longitude <dbl>, Market <chr>,
## #   Order.City <chr>, Order.Country <chr>, order.date..DateOrders. <chr>,
## #   Order.Id <int>, Order.Item.Cardprod.Id <int>, Order.Item.Discount <dbl>,
## #   Order.Item.Discount.Rate <dbl>, Order.Item.Id <int>,
…
